{
  "page": 2,
  "per_page": 10,
  "photos": [
    {
      "id": 20234378,
      "width": 2723,
      "height": 4096,
      "url": "https://www.pexels.com/photo/hungarian-parliament-building-on-the-danube-river-20234378/",
      "photographer": "Sara",
      "photographer_url": "https://www.pexels.com/@sara-734725946",
      "photographer_id": 734725946,
      "avg_color": "#696D70",
      "src": {
        "original": "https://images.pexels.com/photos/20234378/pexels-photo-20234378.jpeg",
        "large2x": "https://images.pexels.com/photos/20234378/pexels-photo-20234378.jpeg?auto=compress\u0026cs=tinysrgb\u0026dpr=2\u0026h=650\u0026w=940",
        "large": "https://images.pexels.com/photos/20234378/pexels-photo-20234378.jpeg?auto=compress\u0026cs=tinysrgb\u0026h=650\u0026w=940",
        "medium": "https://images.pexels.com/photos/20234378/pexels-photo-20234378.jpeg?auto=compress\u0026cs=tinysrgb\u0026h=350",
        "small": "https://images.pexels.com/photos/20234378/pexels-photo-20234378.jpeg?auto=compress\u0026cs=tinysrgb\u0026h=130",
        "portrait": "https://images.pexels.com/photos/20234378/pexels-photo-20234378.jpeg?auto=compress\u0026cs=tinysrgb\u0026fit=crop\u0026h=1200\u0026w=800",
        "landscape": "https://images.pexels.com/photos/20234378/pexels-photo-20234378.jpeg?auto=compress\u0026cs=tinysrgb\u0026fit=crop\u0026h=627\u0026w=1200",
        "tiny": "https://images.pexels.com/photos/20234378/pexels-photo-20234378.jpeg?auto=compress\u0026cs=tinysrgb\u0026dpr=1\u0026fit=crop\u0026h=200\u0026w=280"
      },
      "liked": false,
      "alt": ""
    },
    {
      "id": 20263254,
      "width": 3640,
      "height": 5464,
      "url": "https://www.pexels.com/photo/black-forest-road-20263254/",
      "photographer": "Julien Riedel",
      "photographer_url": "https://www.pexels.com/@julien-riedel-907961520",
      "photographer_id": 907961520,
      "avg_color": "#212413",
      "src": {
        "original": "https://images.pexels.com/photos/20263254/pexels-photo-20263254.jpeg",
        "large2x": "https://images.pexels.com/photos/20263254/pexels-photo-20263254.jpeg?auto=compress\u0026cs=tinysrgb\u0026dpr=2\u0026h=650\u0026w=940",
        "large": "https://images.pexels.com/photos/20263254/pexels-photo-20263254.jpeg?auto=compress\u0026cs=tinysrgb\u0026h=650\u0026w=940",
        "medium": "https://images.pexels.com/photos/20263254/pexels-photo-20263254.jpeg?auto=compress\u0026cs=tinysrgb\u0026h=350",
        "small": "https://images.pexels.com/photos/20263254/pexels-photo-20263254.jpeg?auto=compress\u0026cs=tinysrgb\u0026h=130",
        "portrait": "https://images.pexels.com/photos/20263254/pexels-photo-20263254.jpeg?auto=compress\u0026cs=tinysrgb\u0026fit=crop\u0026h=1200\u0026w=800",
        "landscape": "https://images.pexels.com/photos/20263254/pexels-photo-20263254.jpeg?auto=compress\u0026cs=tinysrgb\u0026fit=crop\u0026h=627\u0026w=1200",
        "tiny": "https://images.pexels.com/photos/20263254/pexels-photo-20263254.jpeg?auto=compress\u0026cs=tinysrgb\u0026dpr=1\u0026fit=crop\u0026h=200\u0026w=280"
      },
      "liked": false,
      "alt": "black forest road "
    },
    {
      "id": 20278901,
      "width": 3837,
      "height": 5756,
      "url": "https://www.pexels.com/photo/a-woman-in-a-black-dress-leaning-against-a-wooden-door-20278901/",
      "photographer": "Rajaa Lemnari",
      "photographer_url": "https://www.pexels.com/@rajaalemnari",
      "photographer_id": 857487426,
      "avg_color": "#927160",
      "src": {
        "original": "https://images.pexels.com/photos/20278901/pexels-photo-20278901.jpeg",
        "large2x": "https://images.pexels.com/photos/20278901/pexels-photo-20278901.jpeg?auto=compress\u0026cs=tinysrgb\u0026dpr=2\u0026h=650\u0026w=940",
        "large": "https://images.pexels.com/photos/20278901/pexels-photo-20278901.jpeg?auto=compress\u0026cs=tinysrgb\u0026h=650\u0026w=940",
        "medium": "https://images.pexels.com/photos/20278901/pexels-photo-20278901.jpeg?auto=compress\u0026cs=tinysrgb\u0026h=350",
        "small": "https://images.pexels.com/photos/20278901/pexels-photo-20278901.jpeg?auto=compress\u0026cs=tinysrgb\u0026h=130",
        "portrait": "https://images.pexels.com/photos/20278901/pexels-photo-20278901.jpeg?auto=compress\u0026cs=tinysrgb\u0026fit=crop\u0026h=1200\u0026w=800",
        "landscape": "https://images.pexels.com/photos/20278901/pexels-photo-20278901.jpeg?auto=compress\u0026cs=tinysrgb\u0026fit=crop\u0026h=627\u0026w=1200",
        "tiny": "https://images.pexels.com/photos/20278901/pexels-photo-20278901.jpeg?auto=compress\u0026cs=tinysrgb\u0026dpr=1\u0026fit=crop\u0026h=200\u0026w=280"
      },
      "liked": false,
      "alt": "Free stock photo of editorial, editorial fashion, editorial photo"
    },
    {
      "id": 20307655,
      "width": 4107,
      "height": 6161,
      "url": "https://www.pexels.com/photo/the-arches-of-the-church-of-the-holy-sepulchre-in-jerusalem-20307655/",
      "photographer": "Hatice Baran",
      "photographer_url": "https://www.pexels.com/@hatice-baran-153179658",
      "photographer_id": 153179658,
      "avg_color": "#9C7E64",
      "src": {
        "original": "https://images.pexels.com/photos/20307655/pexels-photo-20307655.jpeg",
        "large2x": "https://images.pexels.com/photos/20307655/pexels-photo-20307655.jpeg?auto=compress\u0026cs=tinysrgb\u0026dpr=2\u0026h=650\u0026w=940",
        "large": "https://images.pexels.com/photos/20307655/pexels-photo-20307655.jpeg?auto=compress\u0026cs=tinysrgb\u0026h=650\u0026w=940",
        "medium": "https://images.pexels.com/photos/20307655/pexels-photo-20307655.jpeg?auto=compress\u0026cs=tinysrgb\u0026h=350",
        "small": "https://images.pexels.com/photos/20307655/pexels-photo-20307655.jpeg?auto=compress\u0026cs=tinysrgb\u0026h=130",
        "portrait": "https://images.pexels.com/photos/20307655/pexels-photo-20307655.jpeg?auto=compress\u0026cs=tinysrgb\u0026fit=crop\u0026h=1200\u0026w=800",
        "landscape": "https://images.pexels.com/photos/20307655/pexels-photo-20307655.jpeg?auto=compress\u0026cs=tinysrgb\u0026fit=crop\u0026h=627\u0026w=1200",
        "tiny": "https://images.pexels.com/photos/20307655/pexels-photo-20307655.jpeg?auto=compress\u0026cs=tinysrgb\u0026dpr=1\u0026fit=crop\u0026h=200\u0026w=280"
      },
      "liked": false,
      "alt": "The arches of the church of the holy sepulchre in jerusalem"
    },
    {
      "id": 20297230,
      "width": 3024,
      "height": 4032,
      "url": "https://www.pexels.com/photo/a-set-of-easels-with-a-painting-on-them-20297230/",
      "photographer": "Çisel Bozar",
      "photographer_url": "https://www.pexels.com/@cisel-bozar-986913576",
      "photographer_id": 986913576,
      "avg_color": "#A29688",
      "src": {
        "original": "https://images.pexels.com/photos/20297230/pexels-photo-20297230.jpeg",
        "large2x": "https://images.pexels.com/photos/20297230/pexels-photo-20297230.jpeg?auto=compress\u0026cs=tinysrgb\u0026dpr=2\u0026h=650\u0026w=940",
        "large": "https://images.pexels.com/photos/20297230/pexels-photo-20297230.jpeg?auto=compress\u0026cs=tinysrgb\u0026h=650\u0026w=940",
        "medium": "https://images.pexels.com/photos/20297230/pexels-photo-20297230.jpeg?auto=compress\u0026cs=tinysrgb\u0026h=350",
        "small": "https://images.pexels.com/photos/20297230/pexels-photo-20297230.jpeg?auto=compress\u0026cs=tinysrgb\u0026h=130",
        "portrait": "https://images.pexels.com/photos/20297230/pexels-photo-20297230.jpeg?auto=compress\u0026cs=tinysrgb\u0026fit=crop\u0026h=1200\u0026w=800",
        "landscape": "https://images.pexels.com/photos/20297230/pexels-photo-20297230.jpeg?auto=compress\u0026cs=tinysrgb\u0026fit=crop\u0026h=627\u0026w=1200",
        "tiny": "https://images.pexels.com/photos/20297230/pexels-photo-20297230.jpeg?auto=compress\u0026cs=tinysrgb\u0026dpr=1\u0026fit=crop\u0026h=200\u0026w=280"
      },
      "liked": false,
      "alt": "A set of easels with a painting on them"
    },
    {
      "id": 20293120,
      "width": 3024,
      "height": 4032,
      "url": "https://www.pexels.com/photo/azores-portugal-20293120/",
      "photographer": "Alisa Velieva",
      "photographer_url": "https://www.pexels.com/@alisa-velieva-3129246",
      "photographer_id": 3129246,
      "avg_color": "#585E3A",
      "src": {
        "original": "https://images.pexels.com/photos/20293120/pexels-photo-20293120.jpeg",
        "large2x": "https://images.pexels.com/photos/20293120/pexels-photo-20293120.jpeg?auto=compress\u0026cs=tinysrgb\u0026dpr=2\u0026h=650\u0026w=940",
        "large": "https://images.pexels.com/photos/20293120/pexels-photo-20293120.jpeg?auto=compress\u0026cs=tinysrgb\u0026h=650\u0026w=940",
        "medium": "https://images.pexels.com/photos/20293120/pexels-photo-20293120.jpeg?auto=compress\u0026cs=tinysrgb\u0026h=350",
        "small": "https://images.pexels.com/photos/20293120/pexels-photo-20293120.jpeg?auto=compress\u0026cs=tinysrgb\u0026h=130",
        "portrait": "https://images.pexels.com/photos/20293120/pexels-photo-20293120.jpeg?auto=compress\u0026cs=tinysrgb\u0026fit=crop\u0026h=1200\u0026w=800",
        "landscape": "https://images.pexels.com/photos/20293120/pexels-photo-20293120.jpeg?auto=compress\u0026cs=tinysrgb\u0026fit=crop\u0026h=627\u0026w=1200",
        "tiny": "https://images.pexels.com/photos/20293120/pexels-photo-20293120.jpeg?auto=compress\u0026cs=tinysrgb\u0026dpr=1\u0026fit=crop\u0026h=200\u0026w=280"
      },
      "liked": false,
      "alt": "Azores, Portugal"
    },
    {
      "id": 20270869,
      "width": 1920,
      "height": 2880,
      "url": "https://www.pexels.com/photo/a-vase-of-red-tulips-sitting-on-a-table-next-to-a-window-20270869/",
      "photographer": "cami",
      "photographer_url": "https://www.pexels.com/@casnafu",
      "photographer_id": 132623139,
      "avg_color": "#797166",
      "src": {
        "original": "https://images.pexels.com/photos/20270869/pexels-photo-20270869.jpeg",
        "large2x": "https://images.pexels.com/photos/20270869/pexels-photo-20270869.jpeg?auto=compress\u0026cs=tinysrgb\u0026dpr=2\u0026h=650\u0026w=940",
        "large": "https://images.pexels.com/photos/20270869/pexels-photo-20270869.jpeg?auto=compress\u0026cs=tinysrgb\u0026h=650\u0026w=940",
        "medium": "https://images.pexels.com/photos/20270869/pexels-photo-20270869.jpeg?auto=compress\u0026cs=tinysrgb\u0026h=350",
        "small": "https://images.pexels.com/photos/20270869/pexels-photo-20270869.jpeg?auto=compress\u0026cs=tinysrgb\u0026h=130",
        "portrait": "https://images.pexels.com/photos/20270869/pexels-photo-20270869.jpeg?auto=compress\u0026cs=tinysrgb\u0026fit=crop\u0026h=1200\u0026w=800",
        "landscape": "https://images.pexels.com/photos/20270869/pexels-photo-20270869.jpeg?auto=compress\u0026cs=tinysrgb\u0026fit=crop\u0026h=627\u0026w=1200",
        "tiny": "https://images.pexels.com/photos/20270869/pexels-photo-20270869.jpeg?auto=compress\u0026cs=tinysrgb\u0026dpr=1\u0026fit=crop\u0026h=200\u0026w=280"
      },
      "liked": false,
      "alt": "Free stock photo of berlin, flower vase, flowers"
    },
    {
      "id": 20267706,
      "width": 5464,
      "height": 8192,
      "url": "https://www.pexels.com/photo/a-couple-is-sitting-on-top-of-a-bed-in-a-cabin-20267706/",
      "photographer": "Jonathan Borba",
      "photographer_url": "https://www.pexels.com/@jonathanborba",
      "photographer_id": 1491594,
      "avg_color": "#959595",
      "src": {
        "original": "https://images.pexels.com/photos/20267706/pexels-photo-20267706.jpeg",
        "large2x": "https://images.pexels.com/photos/20267706/pexels-photo-20267706.jpeg?auto=compress\u0026cs=tinysrgb\u0026dpr=2\u0026h=650\u0026w=940",
        "large": "https://images.pexels.com/photos/20267706/pexels-photo-20267706.jpeg?auto=compress\u0026cs=tinysrgb\u0026h=650\u0026w=940",
        "medium": "https://images.pexels.com/photos/20267706/pexels-photo-20267706.jpeg?auto=compress\u0026cs=tinysrgb\u0026h=350",
        "small": "https://images.pexels.com/photos/20267706/pexels-photo-20267706.jpeg?auto=compress\u0026cs=tinysrgb\u0026h=130",
        "portrait": "https://images.pexels.com/photos/20267706/pexels-photo-20267706.jpeg?auto=compress\u0026cs=tinysrgb\u0026fit=crop\u0026h=1200\u0026w=800",
        "landscape": "https://images.pexels.com/photos/20267706/pexels-photo-20267706.jpeg?auto=compress\u0026cs=tinysrgb\u0026fit=crop\u0026h=627\u0026w=1200",
        "tiny": "https://images.pexels.com/photos/20267706/pexels-photo-20267706.jpeg?auto=compress\u0026cs=tinysrgb\u0026dpr=1\u0026fit=crop\u0026h=200\u0026w=280"
      },
      "liked": false,
      "alt": "A couple is sitting on top of a bed in a cabin"
    },
    {
      "id": 20230667,
      "width": 4000,
      "height": 6000,
      "url": "https://www.pexels.com/photo/town-on-sea-coast-20230667/",
      "photographer": "Lena Khrupina",
      "photographer_url": "https://www.pexels.com/@lena-khrupina-1386611",
      "photographer_id": 1386611,
      "avg_color": "#A4988C",
      "src": {
        "original": "https://images.pexels.com/photos/20230667/pexels-photo-20230667.jpeg",
        "large2x": "https://images.pexels.com/photos/20230667/pexels-photo-20230667.jpeg?auto=compress\u0026cs=tinysrgb\u0026dpr=2\u0026h=650\u0026w=940",
        "large": "https://images.pexels.com/photos/20230667/pexels-photo-20230667.jpeg?auto=compress\u0026cs=tinysrgb\u0026h=650\u0026w=940",
        "medium": "https://images.pexels.com/photos/20230667/pexels-photo-20230667.jpeg?auto=compress\u0026cs=tinysrgb\u0026h=350",
        "small": "https://images.pexels.com/photos/20230667/pexels-photo-20230667.jpeg?auto=compress\u0026cs=tinysrgb\u0026h=130",
        "portrait": "https://images.pexels.com/photos/20230667/pexels-photo-20230667.jpeg?auto=compress\u0026cs=tinysrgb\u0026fit=crop\u0026h=1200\u0026w=800",
        "landscape": "https://images.pexels.com/photos/20230667/pexels-photo-20230667.jpeg?auto=compress\u0026cs=tinysrgb\u0026fit=crop\u0026h=627\u0026w=1200",
        "tiny": "https://images.pexels.com/photos/20230667/pexels-photo-20230667.jpeg?auto=compress\u0026cs=tinysrgb\u0026dpr=1\u0026fit=crop\u0026h=200\u0026w=280"
      },
      "liked": false,
      "alt": ""
    },
    {
      "id": 20230729,
      "width": 4000,
      "height": 6000,
      "url": "https://www.pexels.com/photo/woman-walking-on-sunlit-beach-20230729/",
      "photographer": "Lena Khrupina",
      "photographer_url": "https://www.pexels.com/@lena-khrupina-1386611",
      "photographer_id": 1386611,
      "avg_color": "#7E8679",
      "src": {
        "original": "https://images.pexels.com/photos/20230729/pexels-photo-20230729.jpeg",
        "large2x": "https://images.pexels.com/photos/20230729/pexels-photo-20230729.jpeg?auto=compress\u0026cs=tinysrgb\u0026dpr=2\u0026h=650\u0026w=940",
        "large": "https://images.pexels.com/photos/20230729/pexels-photo-20230729.jpeg?auto=compress\u0026cs=tinysrgb\u0026h=650\u0026w=940",
        "medium": "https://images.pexels.com/photos/20230729/pexels-photo-20230729.jpeg?auto=compress\u0026cs=tinysrgb\u0026h=350",
        "small": "https://images.pexels.com/photos/20230729/pexels-photo-20230729.jpeg?auto=compress\u0026cs=tinysrgb\u0026h=130",
        "portrait": "https://images.pexels.com/photos/20230729/pexels-photo-20230729.jpeg?auto=compress\u0026cs=tinysrgb\u0026fit=crop\u0026h=1200\u0026w=800",
        "landscape": "https://images.pexels.com/photos/20230729/pexels-photo-20230729.jpeg?auto=compress\u0026cs=tinysrgb\u0026fit=crop\u0026h=627\u0026w=1200",
        "tiny": "https://images.pexels.com/photos/20230729/pexels-photo-20230729.jpeg?auto=compress\u0026cs=tinysrgb\u0026dpr=1\u0026fit=crop\u0026h=200\u0026w=280"
      },
      "liked": false,
      "alt": ""
    }
  ],
  "total_results": 8000,
  "next_page": "https://api.pexels.com/v1/curated/?page=3\u0026per_page=10",
  "prev_page": "https://api.pexels.com/v1/curated/?page=1\u0026per_page=10"
}